Raising the Curtain: Getting Started with overtureR • overtureR
…
print(dc_transit)
#> Simple feature collection with 68 features and 2 fields
#> Geometry type: LINESTRING
#> Dimension:     XY
#> Bounding box:  xmin: -90.31959 ymin: 28.55565 xmax: 77.32188 ymax: 38.90493
#> Geodetic CRS:  WGS 84
#> # A tibble: 68 × 3
#>    id                               names$primary                       geometry
#>  * <chr>                            <chr>                       <LINESTRING [°]>
#>  1 087264626affffff043ffc2b3144b3a7 MetroLink Blue Li… (-90.31937 38.59281, -90…
#>  2 08a264626ac9ffff047f7d261e0621c1 MetroLink Blue Li… (-90.31953 38.59449, -90…
#>  3 0882aaab6b9fffff047fce6d3d503cbb Washington Metro … (-77.17012 38.76558, -77…
#>  4 0882aaab6b9fffff047f4f7cfb7d2213 Washington Metro … (-77.16921 38.76605, -77…
#>  5 0882aaab6b9fffff047d4f802d0088b3 Washington Metro … (-77.1722 38.76407, -77.…
#>  6 0892aaab6b87ffff043feba9dc38ea8a Washington Metro … (-77.16921 38.76605, -77…
#>  7 0882aaab6b9fffff043deaefb98cca11 Washington Metro … (-77.16914 38.76595, -77…
#>  8 0882aaab6b9fffff043d5eed1e3cfc79 Washington Metro … (-77.16668 38.76711, -77…
#>  9 0892aaab6b97ffff043d4f37cb3cfa67 Washington Metro … (-77.16662 38.76702, -77…
#> 10 0892aaab6b97ffff043def367e4234e1 Washington Metro … (-77.16668 38.76711, -77…
#> # ℹ 58 more rows
#> # ℹ 2 more variables: names$common <list>, $rules <list>
…
